\relax 
\providecommand\hyper@newdestlabel[2]{}
\providecommand\HyperFirstAtBeginDocument{\AtBeginDocument}
\HyperFirstAtBeginDocument{\ifx\hyper@anchor\@undefined
\global\let\oldcontentsline\contentsline
\gdef\contentsline#1#2#3#4{\oldcontentsline{#1}{#2}{#3}}
\global\let\oldnewlabel\newlabel
\gdef\newlabel#1#2{\newlabelxx{#1}#2}
\gdef\newlabelxx#1#2#3#4#5#6{\oldnewlabel{#1}{{#2}{#3}}}
\AtEndDocument{\ifx\hyper@anchor\@undefined
\let\contentsline\oldcontentsline
\let\newlabel\oldnewlabel
\fi}
\fi}
\global\let\hyper@last\relax 
\gdef\HyperFirstAtBeginDocument#1{#1}
\providecommand\HyField@AuxAddToFields[1]{}
\providecommand\HyField@AuxAddToCoFields[2]{}
\@writefile{toc}{\contentsline {chapter}{\numberline {1}How to become a FreeCol developer}{5}{chapter.1}\protected@file@percent }
\@writefile{lof}{\addvspace {10\p@ }}
\@writefile{lot}{\addvspace {10\p@ }}
\@writefile{toc}{\contentsline {section}{\numberline {1.1}The goal of our project}{5}{section.1.1}\protected@file@percent }
\@writefile{toc}{\contentsline {section}{\numberline {1.2}SourceForge project site}{5}{section.1.2}\protected@file@percent }
\@writefile{toc}{\contentsline {section}{\numberline {1.3}How to find tasks}{6}{section.1.3}\protected@file@percent }
\@writefile{toc}{\contentsline {section}{\numberline {1.4}How to use the trackers}{6}{section.1.4}\protected@file@percent }
\@writefile{toc}{\contentsline {section}{\numberline {1.5}Mailing lists}{8}{section.1.5}\protected@file@percent }
\@writefile{toc}{\contentsline {section}{\numberline {1.6}Git}{8}{section.1.6}\protected@file@percent }
\@writefile{toc}{\contentsline {section}{\numberline {1.7}Compiling the code}{8}{section.1.7}\protected@file@percent }
\@writefile{toc}{\contentsline {section}{\numberline {1.8}Using an IDE}{9}{section.1.8}\protected@file@percent }
\@writefile{toc}{\contentsline {subsection}{\numberline {1.8.1}Using Eclipse (thanks to ``nobody'')}{9}{subsection.1.8.1}\protected@file@percent }
\@writefile{toc}{\contentsline {subsection}{\numberline {1.8.2}Using NetBeans (thanks to ``wintertime'')}{11}{subsection.1.8.2}\protected@file@percent }
\@writefile{toc}{\contentsline {subsection}{\numberline {1.8.3}Creating a new NetBeans project (thanks to ``xsainnz'')}{11}{subsection.1.8.3}\protected@file@percent }
\@writefile{toc}{\contentsline {section}{\numberline {1.9}Code documentation}{12}{section.1.9}\protected@file@percent }
\@writefile{toc}{\contentsline {section}{\numberline {1.10}Code Quality}{12}{section.1.10}\protected@file@percent }
\@writefile{toc}{\contentsline {chapter}{\numberline {2}How to make a FreeCol release}{13}{chapter.2}\protected@file@percent }
\@writefile{lof}{\addvspace {10\p@ }}
\@writefile{lot}{\addvspace {10\p@ }}
\@writefile{toc}{\contentsline {chapter}{\numberline {3}Missing features}{17}{chapter.3}\protected@file@percent }
\@writefile{lof}{\addvspace {10\p@ }}
\@writefile{lot}{\addvspace {10\p@ }}
\@writefile{toc}{\contentsline {chapter}{\numberline {4}Changing the Rules}{19}{chapter.4}\protected@file@percent }
\@writefile{lof}{\addvspace {10\p@ }}
\@writefile{lot}{\addvspace {10\p@ }}
\@writefile{toc}{\contentsline {section}{\numberline {4.1}Modifiers and Abilities}{20}{section.4.1}\protected@file@percent }
\@writefile{default}{\indexentry{model.ability.addTaxToBells|hyperpage}{20}}
\@writefile{default}{\indexentry{Ability!model.ability.addTaxToBells|hyperpage}{20}}
\@writefile{default}{\indexentry{model.ability.alwaysOfferedPeace|hyperpage}{20}}
\@writefile{default}{\indexentry{Ability!model.ability.alwaysOfferedPeace|hyperpage}{20}}
\@writefile{default}{\indexentry{model.ability.ambushBonus|hyperpage}{20}}
\@writefile{default}{\indexentry{Ability!model.ability.ambushBonus|hyperpage}{20}}
\@writefile{default}{\indexentry{model.ability.ambushPenalty|hyperpage}{20}}
\@writefile{default}{\indexentry{Ability!model.ability.ambushPenalty|hyperpage}{20}}
\@writefile{default}{\indexentry{model.ability.autoProduction|hyperpage}{20}}
\@writefile{default}{\indexentry{Ability!model.ability.autoProduction|hyperpage}{20}}
\@writefile{default}{\indexentry{model.ability.automaticEquipment|hyperpage}{21}}
\@writefile{default}{\indexentry{Ability!model.ability.automaticEquipment|hyperpage}{21}}
\@writefile{default}{\indexentry{model.ability.automaticPromotion|hyperpage}{21}}
\@writefile{default}{\indexentry{Ability!model.ability.automaticPromotion|hyperpage}{21}}
\@writefile{default}{\indexentry{model.ability.betterForeignAffairsReport|hyperpage}{21}}
\@writefile{default}{\indexentry{Ability!model.ability.betterForeignAffairsReport|hyperpage}{21}}
\@writefile{default}{\indexentry{model.ability.bombard|hyperpage}{21}}
\@writefile{default}{\indexentry{Ability!model.ability.bombard|hyperpage}{21}}
\@writefile{default}{\indexentry{model.ability.bombardShips|hyperpage}{21}}
\@writefile{default}{\indexentry{Ability!model.ability.bombardShips|hyperpage}{21}}
\@writefile{default}{\indexentry{model.ability.bornInColony|hyperpage}{21}}
\@writefile{default}{\indexentry{Ability!model.ability.bornInColony|hyperpage}{21}}
\@writefile{default}{\indexentry{model.ability.bornInIndianSettlement|hyperpage}{22}}
\@writefile{default}{\indexentry{Ability!model.ability.bornInIndianSettlement|hyperpage}{22}}
\@writefile{default}{\indexentry{model.ability.build|hyperpage}{22}}
\@writefile{default}{\indexentry{Ability!model.ability.build|hyperpage}{22}}
\@writefile{default}{\indexentry{model.ability.buildCustomHouse|hyperpage}{22}}
\@writefile{default}{\indexentry{Ability!model.ability.buildCustomHouse|hyperpage}{22}}
\@writefile{default}{\indexentry{model.ability.buildFactory|hyperpage}{22}}
\@writefile{default}{\indexentry{Ability!model.ability.buildFactory|hyperpage}{22}}
\@writefile{default}{\indexentry{model.ability.canBeCaptured|hyperpage}{22}}
\@writefile{default}{\indexentry{Ability!model.ability.canBeCaptured|hyperpage}{22}}
\@writefile{default}{\indexentry{model.ability.canBeEquipped|hyperpage}{22}}
\@writefile{default}{\indexentry{Ability!model.ability.canBeEquipped|hyperpage}{22}}
\@writefile{default}{\indexentry{model.ability.canNotRecruitUnit|hyperpage}{22}}
\@writefile{default}{\indexentry{Ability!model.ability.canNotRecruitUnit|hyperpage}{22}}
\@writefile{default}{\indexentry{model.ability.captureEquipment|hyperpage}{23}}
\@writefile{default}{\indexentry{Ability!model.ability.captureEquipment|hyperpage}{23}}
\@writefile{default}{\indexentry{model.ability.captureGoods|hyperpage}{23}}
\@writefile{default}{\indexentry{Ability!model.ability.captureGoods|hyperpage}{23}}
\@writefile{default}{\indexentry{model.ability.captureUnits|hyperpage}{23}}
\@writefile{default}{\indexentry{Ability!model.ability.captureUnits|hyperpage}{23}}
\@writefile{default}{\indexentry{model.ability.carryGoods|hyperpage}{23}}
\@writefile{default}{\indexentry{Ability!model.ability.carryGoods|hyperpage}{23}}
\@writefile{default}{\indexentry{model.ability.carryTreasure|hyperpage}{23}}
\@writefile{default}{\indexentry{Ability!model.ability.carryTreasure|hyperpage}{23}}
\@writefile{default}{\indexentry{model.ability.carryUnits|hyperpage}{23}}
\@writefile{default}{\indexentry{Ability!model.ability.carryUnits|hyperpage}{23}}
\@writefile{default}{\indexentry{model.ability.convert|hyperpage}{24}}
\@writefile{default}{\indexentry{Ability!model.ability.convert|hyperpage}{24}}
\@writefile{default}{\indexentry{model.ability.dressMissionary|hyperpage}{24}}
\@writefile{default}{\indexentry{Ability!model.ability.dressMissionary|hyperpage}{24}}
\@writefile{default}{\indexentry{model.ability.electFoundingFather|hyperpage}{24}}
\@writefile{default}{\indexentry{Ability!model.ability.electFoundingFather|hyperpage}{24}}
\@writefile{default}{\indexentry{model.ability.expertMissionary|hyperpage}{24}}
\@writefile{default}{\indexentry{Ability!model.ability.expertMissionary|hyperpage}{24}}
\@writefile{default}{\indexentry{model.ability.expertPioneer|hyperpage}{24}}
\@writefile{default}{\indexentry{Ability!model.ability.expertPioneer|hyperpage}{24}}
\@writefile{default}{\indexentry{model.ability.expertScout|hyperpage}{24}}
\@writefile{default}{\indexentry{Ability!model.ability.expertScout|hyperpage}{24}}
\@writefile{default}{\indexentry{model.ability.expertSoldier|hyperpage}{24}}
\@writefile{default}{\indexentry{Ability!model.ability.expertSoldier|hyperpage}{24}}
\@writefile{default}{\indexentry{model.ability.expertsUseConnections|hyperpage}{25}}
\@writefile{default}{\indexentry{Ability!model.ability.expertsUseConnections|hyperpage}{25}}
\@writefile{default}{\indexentry{model.ability.export|hyperpage}{25}}
\@writefile{default}{\indexentry{Ability!model.ability.export|hyperpage}{25}}
\@writefile{default}{\indexentry{model.ability.foundColony|hyperpage}{25}}
\@writefile{default}{\indexentry{Ability!model.ability.foundColony|hyperpage}{25}}
\@writefile{default}{\indexentry{model.ability.foundInLostCity|hyperpage}{25}}
\@writefile{default}{\indexentry{Ability!model.ability.foundInLostCity|hyperpage}{25}}
\@writefile{default}{\indexentry{model.ability.hasPort|hyperpage}{25}}
\@writefile{default}{\indexentry{Ability!model.ability.hasPort|hyperpage}{25}}
\@writefile{default}{\indexentry{model.ability.ignoreEuropeanWars|hyperpage}{25}}
\@writefile{default}{\indexentry{Ability!model.ability.ignoreEuropeanWars|hyperpage}{25}}
\@writefile{default}{\indexentry{model.ability.improveTerrain|hyperpage}{25}}
\@writefile{default}{\indexentry{Ability!model.ability.improveTerrain|hyperpage}{25}}
\@writefile{default}{\indexentry{model.ability.independenceDeclared|hyperpage}{26}}
\@writefile{default}{\indexentry{Ability!model.ability.independenceDeclared|hyperpage}{26}}
\@writefile{default}{\indexentry{model.ability.mercenaryUnit|hyperpage}{26}}
\@writefile{default}{\indexentry{Ability!model.ability.mercenaryUnit|hyperpage}{26}}
\@writefile{default}{\indexentry{model.ability.missionary|hyperpage}{26}}
\@writefile{default}{\indexentry{Ability!model.ability.missionary|hyperpage}{26}}
\@writefile{default}{\indexentry{model.ability.moveToEurope|hyperpage}{26}}
\@writefile{default}{\indexentry{Ability!model.ability.moveToEurope|hyperpage}{26}}
\@writefile{default}{\indexentry{model.ability.multipleAttacks|hyperpage}{26}}
\@writefile{default}{\indexentry{Ability!model.ability.multipleAttacks|hyperpage}{26}}
\@writefile{default}{\indexentry{model.ability.native|hyperpage}{26}}
\@writefile{default}{\indexentry{Ability!model.ability.native|hyperpage}{26}}
\@writefile{default}{\indexentry{model.ability.navalUnit|hyperpage}{27}}
\@writefile{default}{\indexentry{Ability!model.ability.navalUnit|hyperpage}{27}}
\@writefile{default}{\indexentry{model.ability.pillageUnprotectedColony|hyperpage}{27}}
\@writefile{default}{\indexentry{Ability!model.ability.pillageUnprotectedColony|hyperpage}{27}}
\@writefile{default}{\indexentry{model.ability.piracy|hyperpage}{27}}
\@writefile{default}{\indexentry{Ability!model.ability.piracy|hyperpage}{27}}
\@writefile{default}{\indexentry{model.ability.produceInWater|hyperpage}{27}}
\@writefile{default}{\indexentry{Ability!model.ability.produceInWater|hyperpage}{27}}
\@writefile{default}{\indexentry{model.ability.refUnit|hyperpage}{27}}
\@writefile{default}{\indexentry{Ability!model.ability.refUnit|hyperpage}{27}}
\@writefile{default}{\indexentry{model.ability.repairUnits|hyperpage}{27}}
\@writefile{default}{\indexentry{Ability!model.ability.repairUnits|hyperpage}{27}}
\@writefile{default}{\indexentry{model.ability.royalExpeditionaryForce|hyperpage}{27}}
\@writefile{default}{\indexentry{Ability!model.ability.royalExpeditionaryForce|hyperpage}{27}}
\@writefile{default}{\indexentry{model.ability.rumoursAlwaysPositive|hyperpage}{28}}
\@writefile{default}{\indexentry{Ability!model.ability.rumoursAlwaysPositive|hyperpage}{28}}
\@writefile{default}{\indexentry{model.ability.scoutForeignColony|hyperpage}{28}}
\@writefile{default}{\indexentry{Ability!model.ability.scoutForeignColony|hyperpage}{28}}
\@writefile{default}{\indexentry{model.ability.scoutIndianSettlement|hyperpage}{28}}
\@writefile{default}{\indexentry{Ability!model.ability.scoutIndianSettlement|hyperpage}{28}}
\@writefile{default}{\indexentry{model.ability.selectRecruit|hyperpage}{28}}
\@writefile{default}{\indexentry{Ability!model.ability.selectRecruit|hyperpage}{28}}
\@writefile{default}{\indexentry{model.ability.teach|hyperpage}{28}}
\@writefile{default}{\indexentry{Ability!model.ability.teach|hyperpage}{28}}
\@writefile{default}{\indexentry{model.ability.tradeWithForeignColonies|hyperpage}{28}}
\@writefile{default}{\indexentry{Ability!model.ability.tradeWithForeignColonies|hyperpage}{28}}
\@writefile{default}{\indexentry{model.ability.undead|hyperpage}{28}}
\@writefile{default}{\indexentry{Ability!model.ability.undead|hyperpage}{28}}
\@writefile{default}{\indexentry{model.modifier.bombardBonus|hyperpage}{29}}
\@writefile{default}{\indexentry{Modifier!model.modifier.bombardBonus|hyperpage}{29}}
\@writefile{default}{\indexentry{model.modifier.buildingPriceBonus|hyperpage}{29}}
\@writefile{default}{\indexentry{Modifier!model.modifier.buildingPriceBonus|hyperpage}{29}}
\@writefile{default}{\indexentry{model.modifier.defence|hyperpage}{29}}
\@writefile{default}{\indexentry{Modifier!model.modifier.defence|hyperpage}{29}}
\@writefile{default}{\indexentry{model.modifier.immigration|hyperpage}{29}}
\@writefile{default}{\indexentry{Modifier!model.modifier.immigration|hyperpage}{29}}
\@writefile{default}{\indexentry{model.modifier.landPaymentModifier|hyperpage}{29}}
\@writefile{default}{\indexentry{Modifier!model.modifier.landPaymentModifier|hyperpage}{29}}
\@writefile{default}{\indexentry{model.modifier.liberty|hyperpage}{29}}
\@writefile{default}{\indexentry{Modifier!model.modifier.liberty|hyperpage}{29}}
\@writefile{default}{\indexentry{model.modifier.lineOfSightBonus|hyperpage}{29}}
\@writefile{default}{\indexentry{Modifier!model.modifier.lineOfSightBonus|hyperpage}{29}}
\@writefile{default}{\indexentry{model.modifier.minimumColonySize|hyperpage}{30}}
\@writefile{default}{\indexentry{Modifier!model.modifier.minimumColonySize|hyperpage}{30}}
\@writefile{default}{\indexentry{model.modifier.movementBonus|hyperpage}{30}}
\@writefile{default}{\indexentry{Modifier!model.modifier.movementBonus|hyperpage}{30}}
\@writefile{default}{\indexentry{model.modifier.nativeAlarmModifier|hyperpage}{30}}
\@writefile{default}{\indexentry{Modifier!model.modifier.nativeAlarmModifier|hyperpage}{30}}
\@writefile{default}{\indexentry{model.modifier.nativeConvertBonus|hyperpage}{30}}
\@writefile{default}{\indexentry{Modifier!model.modifier.nativeConvertBonus|hyperpage}{30}}
\@writefile{default}{\indexentry{model.modifier.nativeTreasureModifier|hyperpage}{30}}
\@writefile{default}{\indexentry{Modifier!model.modifier.nativeTreasureModifier|hyperpage}{30}}
\@writefile{default}{\indexentry{model.modifier.offence|hyperpage}{30}}
\@writefile{default}{\indexentry{Modifier!model.modifier.offence|hyperpage}{30}}
\@writefile{default}{\indexentry{model.modifier.religiousUnrestBonus|hyperpage}{30}}
\@writefile{default}{\indexentry{Modifier!model.modifier.religiousUnrestBonus|hyperpage}{30}}
\@writefile{default}{\indexentry{model.modifier.sailHighSeas|hyperpage}{31}}
\@writefile{default}{\indexentry{Modifier!model.modifier.sailHighSeas|hyperpage}{31}}
\@writefile{default}{\indexentry{model.modifier.tradeBonus|hyperpage}{31}}
\@writefile{default}{\indexentry{Modifier!model.modifier.tradeBonus|hyperpage}{31}}
\@writefile{default}{\indexentry{model.modifier.treasureTransportFee|hyperpage}{31}}
\@writefile{default}{\indexentry{Modifier!model.modifier.treasureTransportFee|hyperpage}{31}}
\@writefile{default}{\indexentry{model.modifier.warehouseStorage|hyperpage}{31}}
\@writefile{default}{\indexentry{Modifier!model.modifier.warehouseStorage|hyperpage}{31}}
\@writefile{toc}{\contentsline {chapter}{\numberline {5}Mods}{33}{chapter.5}\protected@file@percent }
\@writefile{lof}{\addvspace {10\p@ }}
\@writefile{lot}{\addvspace {10\p@ }}
\@writefile{toc}{\contentsline {chapter}{\numberline {6}Resources}{35}{chapter.6}\protected@file@percent }
\@writefile{lof}{\addvspace {10\p@ }}
\@writefile{lot}{\addvspace {10\p@ }}
\@writefile{toc}{\contentsline {chapter}{\numberline {7}Map Format}{37}{chapter.7}\protected@file@percent }
\@writefile{lof}{\addvspace {10\p@ }}
\@writefile{lot}{\addvspace {10\p@ }}
\gdef \@abspage@last{37}
